<svg xmlns="http://www.w3.org/2000/svg" width="32" height="32" version="1.1">
 <circle style="opacity:0.2" cx="16" cy="17" r="14"/>
 <circle style="fill:#2f88d0" cx="16" cy="16" r="14"/>
 <path style="opacity:0.2;fill:none;stroke:#000000;stroke-linecap:round;stroke-linejoin:round" d="M 7.5,19.6 V 23.1 C 7.5,23.1 7.5,24.5 8.9,24.5 H 23.1 C 24.5,24.5 24.5,23.1 24.5,23.1 V 14 L 16,7.5 7.5,14 V 16.8 L 16,21.5 20.5,18.9 V 15.91166 C 20.5,14.500339 19.1,14.500339 19.1,14.500339 H 12.9 C 12.9,14.500339 11.5,14.446405 11.5,16.5"/>
 <path style="fill:none;stroke:#ffffff;stroke-linecap:round;stroke-linejoin:round" d="M 7.5,18.6 V 22.1 C 7.5,22.1 7.5,23.5 8.9,23.5 H 23.1 C 24.5,23.5 24.5,22.1 24.5,22.1 V 13 L 16,6.5 7.5,13 V 15.8 L 16,20.5 20.5,17.9 V 14.91166 C 20.5,13.500339 19.1,13.500339 19.1,13.500339 H 12.9 C 12.9,13.500339 11.5,13.446405 11.5,15.5"/>
 <path style="fill:#ffffff;opacity:0.2" d="M 16 2 A 14 14 0 0 0 2 16 A 14 14 0 0 0 2.0214844 16.585938 A 14 14 0 0 1 16 3 A 14 14 0 0 1 29.978516 16.414062 A 14 14 0 0 0 30 16 A 14 14 0 0 0 16 2 z"/>
</svg>
